Stat 480 - Homework #6
…
reorder the remaining neighborhoods according to the mean sales prices.

library(dplyr)
housing %>%
  mutate(price_per_sqft = SalePrice / LivingArea) %>%
  group_by(Neighborhood) %>%
  summarise(mean_price_per_sqft = mean(price_per_sqft),
            ct = n(),
            mean_sales_price = mean(SalePrice)) %>%
  filter(ct >= 10) %>%
  arrange(mean_sales_price) %>%
  select(-ct, -mean_sales_price)

## # A tibble: 27 x 2
##    Neighborhood mean_price_per_sqft
##    <fct>                      <dbl>
##  1 MeadowV                     97.5
##  2 IDOT&RR                     90.5
##  3 Br'Dale                     97.5
##  4 Landmrk                     96.5
##  5 IOCondo                    114  
##  6 Blueste                    109  
##  7 OldTown                     92.2
##  8 BrkSide                    103  
##  9 Edwards                    103  
## 10 Sawyer                     126  
## # ... with 17 more rows
…
